^D:\PROJECTS\REALENGINE\SRC\REALENGINECORE\COREMESH.CPP
/c /ID:\PROJECTS\REALENGINE\SRC\RELEASE /I"D:\PROJECTS\REALENGINE\RES\GLFW-3.2.1.BIN.WIN32\INCLUDE" /I"D:\PROJECTS\REALENGINE\RES\GLM-0.9.8.4" /IC:\VULKANSDK\1.0.33.0\INCLUDE /AI"C:\PROGRAM FILES (X86)\REFERENCE ASSEMBLIES\MICROSOFT\FRAMEWORK\.NETFRAMEWORK\V4.5.2\\" /AI"C:\PROGRAM FILES (X86)\WINDOWS KITS\8.1\REFERENCES\COMMONCONFIGURATION\NEUTRAL" /AI"C:\PROGRAM FILES (X86)\REFERENCE ASSEMBLIES\MICROSOFT\FRAMEWORK\.NETFRAMEWORK\V4.5.2\FACADES\\" /Zi /clr /nologo /W3 /WX- /Od /Oy- /D WIN32 /D _DEBUG /D _CONSOLE /D _WINDLL /D _UNICODE /D UNICODE /EHa /MDd /GS /fp:precise /Zc:wchar_t /Zc:forScope /Zc:inline /Fo"DEBUG\\" /Fd"DEBUG\VC140.PDB" /TP /FU"C:\PROGRAM FILES (X86)\REFERENCE ASSEMBLIES\MICROSOFT\FRAMEWORK\.NETFRAMEWORK\V4.5.2\MSCORLIB.DLL" /analyze- /clr:nostdlib  D:\PROJECTS\REALENGINE\SRC\REALENGINECORE\COREMESH.CPP
^D:\PROJECTS\REALENGINE\SRC\REALENGINECORE\COREREALINSTANCE.CPP
/c /ID:\PROJECTS\REALENGINE\SRC\RELEASE /I"D:\PROJECTS\REALENGINE\RES\GLFW-3.2.1.BIN.WIN32\INCLUDE" /I"D:\PROJECTS\REALENGINE\RES\GLM-0.9.8.4" /IC:\VULKANSDK\1.0.33.0\INCLUDE /AI"C:\PROGRAM FILES (X86)\REFERENCE ASSEMBLIES\MICROSOFT\FRAMEWORK\.NETFRAMEWORK\V4.5.2\\" /AI"C:\PROGRAM FILES (X86)\WINDOWS KITS\8.1\REFERENCES\COMMONCONFIGURATION\NEUTRAL" /AI"C:\PROGRAM FILES (X86)\REFERENCE ASSEMBLIES\MICROSOFT\FRAMEWORK\.NETFRAMEWORK\V4.5.2\FACADES\\" /Zi /clr /nologo /W3 /WX- /Od /Oy- /D WIN32 /D _DEBUG /D _CONSOLE /D _WINDLL /D _UNICODE /D UNICODE /EHa /MDd /GS /fp:precise /Zc:wchar_t /Zc:forScope /Zc:inline /Fo"DEBUG\\" /Fd"DEBUG\VC140.PDB" /TP /FU"C:\PROGRAM FILES (X86)\REFERENCE ASSEMBLIES\MICROSOFT\FRAMEWORK\.NETFRAMEWORK\V4.5.2\MSCORLIB.DLL" /analyze- /clr:nostdlib  D:\PROJECTS\REALENGINE\SRC\REALENGINECORE\COREREALINSTANCE.CPP
^D:\PROJECTS\REALENGINE\SRC\REALENGINECORE\MAIN.CPP
/c /ID:\PROJECTS\REALENGINE\SRC\RELEASE /I"D:\PROJECTS\REALENGINE\RES\GLFW-3.2.1.BIN.WIN32\INCLUDE" /I"D:\PROJECTS\REALENGINE\RES\GLM-0.9.8.4" /IC:\VULKANSDK\1.0.33.0\INCLUDE /AI"C:\PROGRAM FILES (X86)\REFERENCE ASSEMBLIES\MICROSOFT\FRAMEWORK\.NETFRAMEWORK\V4.5.2\\" /AI"C:\PROGRAM FILES (X86)\WINDOWS KITS\8.1\REFERENCES\COMMONCONFIGURATION\NEUTRAL" /AI"C:\PROGRAM FILES (X86)\REFERENCE ASSEMBLIES\MICROSOFT\FRAMEWORK\.NETFRAMEWORK\V4.5.2\FACADES\\" /Zi /clr /nologo /W3 /WX- /Od /Oy- /D WIN32 /D _DEBUG /D _CONSOLE /D _WINDLL /D _UNICODE /D UNICODE /EHa /MDd /GS /fp:precise /Zc:wchar_t /Zc:forScope /Zc:inline /Fo"DEBUG\\" /Fd"DEBUG\VC140.PDB" /TP /FU"C:\PROGRAM FILES (X86)\REFERENCE ASSEMBLIES\MICROSOFT\FRAMEWORK\.NETFRAMEWORK\V4.5.2\MSCORLIB.DLL" /analyze- /clr:nostdlib  D:\PROJECTS\REALENGINE\SRC\REALENGINECORE\MAIN.CPP
^D:\PROJECTS\REALENGINE\SRC\REALENGINECORE\MESH.CPP
/c /ID:\PROJECTS\REALENGINE\SRC\RELEASE /I"D:\PROJECTS\REALENGINE\RES\GLFW-3.2.1.BIN.WIN32\INCLUDE" /I"D:\PROJECTS\REALENGINE\RES\GLM-0.9.8.4" /IC:\VULKANSDK\1.0.33.0\INCLUDE /AI"C:\PROGRAM FILES (X86)\REFERENCE ASSEMBLIES\MICROSOFT\FRAMEWORK\.NETFRAMEWORK\V4.5.2\\" /AI"C:\PROGRAM FILES (X86)\WINDOWS KITS\8.1\REFERENCES\COMMONCONFIGURATION\NEUTRAL" /AI"C:\PROGRAM FILES (X86)\REFERENCE ASSEMBLIES\MICROSOFT\FRAMEWORK\.NETFRAMEWORK\V4.5.2\FACADES\\" /Zi /clr /nologo /W3 /WX- /Od /Oy- /D WIN32 /D _DEBUG /D _CONSOLE /D _WINDLL /D _UNICODE /D UNICODE /EHa /MDd /GS /fp:precise /Zc:wchar_t /Zc:forScope /Zc:inline /Fo"DEBUG\\" /Fd"DEBUG\VC140.PDB" /TP /FU"C:\PROGRAM FILES (X86)\REFERENCE ASSEMBLIES\MICROSOFT\FRAMEWORK\.NETFRAMEWORK\V4.5.2\MSCORLIB.DLL" /analyze- /clr:nostdlib  D:\PROJECTS\REALENGINE\SRC\REALENGINECORE\MESH.CPP
^D:\PROJECTS\REALENGINE\SRC\REALENGINECORE\REALINSTANCE.CPP
/c /ID:\PROJECTS\REALENGINE\SRC\RELEASE /I"D:\PROJECTS\REALENGINE\RES\GLFW-3.2.1.BIN.WIN32\INCLUDE" /I"D:\PROJECTS\REALENGINE\RES\GLM-0.9.8.4" /IC:\VULKANSDK\1.0.33.0\INCLUDE /AI"C:\PROGRAM FILES (X86)\REFERENCE ASSEMBLIES\MICROSOFT\FRAMEWORK\.NETFRAMEWORK\V4.5.2\\" /AI"C:\PROGRAM FILES (X86)\WINDOWS KITS\8.1\REFERENCES\COMMONCONFIGURATION\NEUTRAL" /AI"C:\PROGRAM FILES (X86)\REFERENCE ASSEMBLIES\MICROSOFT\FRAMEWORK\.NETFRAMEWORK\V4.5.2\FACADES\\" /Zi /clr /nologo /W3 /WX- /Od /Oy- /D WIN32 /D _DEBUG /D _CONSOLE /D _WINDLL /D _UNICODE /D UNICODE /EHa /MDd /GS /fp:precise /Zc:wchar_t /Zc:forScope /Zc:inline /Fo"DEBUG\\" /Fd"DEBUG\VC140.PDB" /TP /FU"C:\PROGRAM FILES (X86)\REFERENCE ASSEMBLIES\MICROSOFT\FRAMEWORK\.NETFRAMEWORK\V4.5.2\MSCORLIB.DLL" /analyze- /clr:nostdlib  D:\PROJECTS\REALENGINE\SRC\REALENGINECORE\REALINSTANCE.CPP
^D:\PROJECTS\REALENGINE\SRC\REALENGINECORE\REALOBJECT.CPP
/c /ID:\PROJECTS\REALENGINE\SRC\RELEASE /I"D:\PROJECTS\REALENGINE\RES\GLFW-3.2.1.BIN.WIN32\INCLUDE" /I"D:\PROJECTS\REALENGINE\RES\GLM-0.9.8.4" /IC:\VULKANSDK\1.0.33.0\INCLUDE /AI"C:\PROGRAM FILES (X86)\REFERENCE ASSEMBLIES\MICROSOFT\FRAMEWORK\.NETFRAMEWORK\V4.5.2\\" /AI"C:\PROGRAM FILES (X86)\WINDOWS KITS\8.1\REFERENCES\COMMONCONFIGURATION\NEUTRAL" /AI"C:\PROGRAM FILES (X86)\REFERENCE ASSEMBLIES\MICROSOFT\FRAMEWORK\.NETFRAMEWORK\V4.5.2\FACADES\\" /Zi /clr /nologo /W3 /WX- /Od /Oy- /D WIN32 /D _DEBUG /D _CONSOLE /D _WINDLL /D _UNICODE /D UNICODE /EHa /MDd /GS /fp:precise /Zc:wchar_t /Zc:forScope /Zc:inline /Fo"DEBUG\\" /Fd"DEBUG\VC140.PDB" /TP /FU"C:\PROGRAM FILES (X86)\REFERENCE ASSEMBLIES\MICROSOFT\FRAMEWORK\.NETFRAMEWORK\V4.5.2\MSCORLIB.DLL" /analyze- /clr:nostdlib  D:\PROJECTS\REALENGINE\SRC\REALENGINECORE\REALOBJECT.CPP
^D:\PROJECTS\REALENGINE\SRC\REALENGINECORE\VERTEX.CPP
/c /ID:\PROJECTS\REALENGINE\SRC\RELEASE /I"D:\PROJECTS\REALENGINE\RES\GLFW-3.2.1.BIN.WIN32\INCLUDE" /I"D:\PROJECTS\REALENGINE\RES\GLM-0.9.8.4" /IC:\VULKANSDK\1.0.33.0\INCLUDE /AI"C:\PROGRAM FILES (X86)\REFERENCE ASSEMBLIES\MICROSOFT\FRAMEWORK\.NETFRAMEWORK\V4.5.2\\" /AI"C:\PROGRAM FILES (X86)\WINDOWS KITS\8.1\REFERENCES\COMMONCONFIGURATION\NEUTRAL" /AI"C:\PROGRAM FILES (X86)\REFERENCE ASSEMBLIES\MICROSOFT\FRAMEWORK\.NETFRAMEWORK\V4.5.2\FACADES\\" /Zi /clr /nologo /W3 /WX- /Od /Oy- /D WIN32 /D _DEBUG /D _CONSOLE /D _WINDLL /D _UNICODE /D UNICODE /EHa /MDd /GS /fp:precise /Zc:wchar_t /Zc:forScope /Zc:inline /Fo"DEBUG\\" /Fd"DEBUG\VC140.PDB" /TP /FU"C:\PROGRAM FILES (X86)\REFERENCE ASSEMBLIES\MICROSOFT\FRAMEWORK\.NETFRAMEWORK\V4.5.2\MSCORLIB.DLL" /analyze- /clr:nostdlib  D:\PROJECTS\REALENGINE\SRC\REALENGINECORE\VERTEX.CPP
^C:\USERS\OGINI\APPDATA\LOCAL\TEMP\.NETFRAMEWORK,VERSION=V4.5.2.ASSEMBLYATTRIBUTES.CPP
/c /ID:\PROJECTS\REALENGINE\SRC\RELEASE /I"D:\PROJECTS\REALENGINE\RES\GLFW-3.2.1.BIN.WIN32\INCLUDE" /I"D:\PROJECTS\REALENGINE\RES\GLM-0.9.8.4" /IC:\VULKANSDK\1.0.33.0\INCLUDE /Zi /clr /nologo /W3 /WX- /Od /Oy- /D WIN32 /D _DEBUG /D _CONSOLE /D _WINDLL /D _UNICODE /D UNICODE /EHa /MDd /GS /fp:precise /Zc:wchar_t /Zc:forScope /Zc:inline /Fp"DEBUG\REALENGINECORE.PCH" /Fa"DEBUG\\" /Fo"DEBUG\\" /Fd"DEBUG\VC140.PDB" /analyze- C:\USERS\OGINI\APPDATA\LOCAL\TEMP\.NETFRAMEWORK,VERSION=V4.5.2.ASSEMBLYATTRIBUTES.CPP
