^D:\PROJECTS\REALENGINE\SRC\REALENGINECORE\RELEASE\.NETFRAMEWORK,VERSION=V4.5.2.ASSEMBLYATTRIBUTES.OBJ|D:\PROJECTS\REALENGINE\SRC\REALENGINECORE\RELEASE\COREMESH.OBJ|D:\PROJECTS\REALENGINE\SRC\REALENGINECORE\RELEASE\COREREALINSTANCE.OBJ|D:\PROJECTS\REALENGINE\SRC\REALENGINECORE\RELEASE\MAIN.OBJ|D:\PROJECTS\REALENGINE\SRC\REALENGINECORE\RELEASE\MESH.OBJ|D:\PROJECTS\REALENGINE\SRC\REALENGINECORE\RELEASE\REALINSTANCE.OBJ|D:\PROJECTS\REALENGINE\SRC\REALENGINECORE\RELEASE\REALOBJECT.OBJ|D:\PROJECTS\REALENGINE\SRC\REALENGINECORE\RELEASE\VERTEX.OBJ
D:\PROJECTS\REALENGINE\BIN\REALENGINECORE.DLL
D:\PROJECTS\REALENGINE\BIN\REALENGINECORE.PDB
